<svg xmlns="http://www.w3.org/2000/svg" xmlns:xlink="http://www.w3.org/1999/xlink" width="102" height="59" viewBox="0 0 102 59">
    <defs>
        <path id="a" d="M.079.194H13.64v14.33H.08z"/>
    </defs>
    <g fill="none" fill-rule="evenodd">
        <path fill="#AAA" d="M66.482 15.43c0 8.523-6.931 15.432-15.482 15.432-8.55 0-15.482-6.91-15.482-15.431C35.518 6.909 42.45 0 51 0c8.55 0 15.482 6.909 15.482 15.43"/>
        <path fill="#FFF" d="M39.527 19.394c-.059.058-.126.118-.196.18-.27.242-.641.573-.776 1.062-.113-.232-.25-.446-.378-.65-.166-.261-.325-.512-.402-.754h.062c.349 0 .808-.097 1.328-.282.152-.054.362-.1.571-.135a2.677 2.677 0 0 0-.209.58m10.25 2.198c-.112-.084-.248-.155-.392-.23-.167-.088-.356-.187-.458-.284-.187-.18-.353-.493-.53-.824-.147-.277-.299-.563-.489-.823a2.748 2.748 0 0 0-.435-.44c-.091-.08-.23-.199-.258-.251-.207-.4-.331-.94-.451-1.463-.046-.2-.094-.406-.145-.6-.249-.939-.396-1.633-.476-2.251-.237-1.827-.945-2.824-1.918-4.034a20.523 20.523 0 0 0-2.806-2.89c-.232-.195-.459-.41-.7-.637-.715-.674-1.526-1.439-2.636-1.82a3.389 3.389 0 0 0-1.098-.19c-.987 0-1.747.47-2.418.885-.233.144-.452.28-.669.39-.377.189-.825.345-1.3.51-.8.279-1.627.567-2.218 1.063a6.43 6.43 0 0 0-.444.424c-.253.26-.516.527-.74.587a1.286 1.286 0 0 1-.273.018H28.8c-.136 0-.285.002-.455.019-1.085.104-1.8.74-2.43 1.301-.367.328-.713.636-1.092.803-.4.176-.783.219-1.226.268a7.703 7.703 0 0 0-.992.158c-1.106.268-1.958.923-2.782 1.556-.833.64-1.62 1.246-2.614 1.41a1.862 1.862 0 0 1-.3.025 1.432 1.432 0 0 1-1.288-.757c-.26-.488-.233-1.076.073-1.575.22-.356.661-.703 1.13-1.071.876-.69 1.87-1.471 1.881-2.72.007-.808-.272-1.409-.83-1.788-.455-.308-1.029-.428-1.584-.543-.385-.08-.783-.164-1.116-.306-.25-.107-.459-.27-.66-.428-.25-.194-.484-.377-.78-.453l-.368-.094-.18.345a2.543 2.543 0 0 0-.001 2.345c.423.842 1.26 1.458 2.133 1.568.212.027.41.027.585.027h.117c-.178.173-.464.383-.61.491-.163.12-.303.223-.407.319-.746.686-1.172 1.182-1.383 1.61-.55 1.119-.504 2.366.126 3.423.691 1.158 1.934 1.85 3.324 1.85.413 0 .83-.061 1.245-.182.002.104-.003.214-.008.334-.008.21-.018.447.009.702.047.45.222.839.376 1.182.104.232.222.494.211.619-.066.206-.922.62-1.77.62a2.01 2.01 0 0 1-.152-.005l-.16-.013-.136.087c-.53.339-.664.858-.772 1.275-.05.192-.097.373-.175.511-.119.209-.343.339-.604.49l-.022.013a.81.81 0 0 0-.192-.47 1.526 1.526 0 0 0-.367-.303.73.73 0 0 0-.399-.125c-.286 0-.482.176-.671.346l-.013.01c-.074.068-.192.144-.307.219-.178.115-.362.234-.495.384-.134.152-.208.38-.21.623a.675.675 0 0 0-.138-.014h-.026c-.207.008-.594.107-.866.682-.169.357-.174.708-.178.99l-.004.165-.035.031c-.09.079-.33.288-.274.635.053.341.37.517.706.655.105.044.467.187.703.193h.019a.638.638 0 0 0 .385-.12l.216.028a4.4 4.4 0 0 1 .496.106c.27.068.55.14.854.14.23 0 .444-.042.652-.124.51-.205.745-.652.934-1.012.1-.191.214-.407.303-.424.05 0 .152.03.243.056.165.048.371.108.605.108.045 0 .09-.002.134-.007.667-.068 1.186-.525 1.602-.893.221-.195.43-.379.603-.458.168-.077.347-.113.562-.113.254 0 .527.05.816.104.33.062.67.125 1.034.125.135 0 .266-.009.391-.027.504-.071.813-.3 1.086-.502a3.37 3.37 0 0 1 .31-.213c.112-.065.255-.113.392-.16.181-.062.353-.12.493-.228.317-.244.495-.65.652-1.01.058-.131.113-.256.168-.36.018-.034.04-.071.063-.111.131-.231.311-.546.331-.88.128.026.264.039.41.039.339 0 .695-.067 1.04-.132.28-.053.545-.103.788-.117.056-.003.115-.005.174-.005.461 0 .951.099 1.426.194.483.098.94.19 1.386.19.4 0 .736-.077 1.029-.234l.154-.083c.277.273.622.498.965.716h-.012a12.83 12.83 0 0 0-.265-.004c-.418 0-.845.029-1.058.37a.81.81 0 0 0-.033.057 1.18 1.18 0 0 0-.41-.18 3.017 3.017 0 0 0-.658-.065c-.133 0-1.31.012-1.633.454-.301.415-.043.862.185 1.257l.093.163c.06.107.111.22.161.33.154.34.346.764.819.794.03.002.063.003.096.003a3.37 3.37 0 0 0 .393-.027c.094.125.18.258.263.389.336.523.754 1.175 1.741 1.175.034 0 .067 0 .102-.002.469-.021 1.244-.344 2.065-.685.428-.178.832-.346 1.158-.457.104-.036.307-.062.487-.085.301-.04.587-.077.8-.183.451-.221.996-1.06 1.273-1.675.013.147.047.295.081.44.023.096.048.206.052.26.032.484.538.822 1.23.822.286 0 .585-.058.886-.173l.41-.157c.517-.2.753-.292 1.001-.308.082-.006.169-.008.268-.008.18 0 .37.009.553.017.186.009.36.017.53.017.076 0 .144-.002.208-.005.505-.026.906-.394 1.2-.662.058-.054.139-.127.198-.174.05.044.122.124.178.186.26.288.654.724 1.424.99.523.18.961.272 1.304.272.635 0 .857-.31.933-.496a.596.596 0 0 0-.07-.579c.056.004.112.006.165.006.642 0 .83-.32.885-.512.037-.129.083-.457-.287-.735"/>
        <path fill="#AAA" d="M23.887 43.57c7.38 0 7.076 7.056 7.076 7.056v1.12H20.958c0 1.605 1.369 2.987 3.233 2.987s2.815-1.755 2.815-1.755l3.537 1.717c-1.635 2.428-3.841 3.397-6.314 3.397-7.684 0-7.836-6.272-7.836-7.056 0-.784.114-7.467 7.494-7.467m-2.708 5.6h5.48s-.23-2.539-2.702-2.539c-2.473 0-2.778 2.539-2.778 2.539M43.867 34.492v10.6s-2.125-1.643-4.555-1.643c-2.428 0-6.526 1.72-6.526 7.149 0 5.43 3.491 7.494 6.489 7.494 2.998 0 4.667-1.988 4.667-1.988v1.765h4.326V34.492h-4.401zm-3.922 19.776c-.228 0-3.075.04-3.075-3.478 0-3.518 3.113-3.633 3.113-3.633s3.49.115 3.49 3.556c0 3.44-3.301 3.555-3.528 3.555z"/>
        <g transform="translate(73.768 44.477)">
            <mask id="b" fill="#fff">
                <use xlink:href="#a"/>
            </mask>
            <path fill="#AAA" d="M.08.194h4.294v7.791s.149 2.624 2.555 2.624c2.407 0 2.37-2.624 2.37-2.624V.232h4.331v8.02s.557 6.271-6.59 6.271c-7.146 0-6.96-5.511-6.96-6.499V.194z" mask="url(#b)"/>
        </g>
        <path fill="#AAA" d="M90.16 58.092h3.644v-23.6H90.16zM98.357 58.092H102v-23.6h-3.643zM67.169 45.756s2.03-1.593 2.03-4.612c0-3.02-2.174-5.744-6.804-5.744h-7.752v22.692h9.549s6.844-.078 6.844-6.318c0-3.624-1.394-5.011-3.867-6.018m-3.736 8.387h-4.155V39.36h2.221s3.018-.23 3.018 2.427c0 2.658-2.4 2.423-2.4 2.423h-1.383v3.984h2.699c.707 0 2.961.346 2.961 2.964 0 2.617-2.96 2.986-2.96 2.986M0 35.4v22.692h4.44V39.73h2.09s3.265-.151 3.265 2.915c0 3.065-2.898 2.99-2.898 2.99H5.833v5.222l4.44 7.235h5.21l-6.2-9.278s5.099-.454 5.099-6.17c0-5.714-3.853-7.244-8.989-7.244H0zM42.908 21.822c.258-.159.374-.91-.006-.94-.46-.035-1.154.714-.991.97.128.204.767.11.997-.03m-11.223.046c-.157.251.362.247.513.764.151.516.282.72.462.796.18.076 1.18-.237 1.094-.55-.086-.314-.229-.369-.253-.674-.025-.305-.148-.538-.368-.491-.335.072-1.299-.085-1.448.155m12.197-5.617c-.202-.19-.52-.94-.87-.876-.35.063-.447.768-.643 1.086-.196.318-.331.832-.086.794.245-.038.441-.622.79-.628.246-.003.795.589.931 1.068.08.284-.066.656.196.813.41-.107.4-.8.295-1.321-.06-.29-.411-.745-.613-.936m-6.738-6.23c-.79-.056-.105.803 0 1.016.287.584.279 1.404.539 1.779.473-.785.112-2.75-.54-2.796m-.17 8.944c-.01-.262.334-.55.538-1.38.16-.647.106-1.584 0-1.567-.106.016-.237.432-.31.89-.074.456-.433 1.473-.743 1.702-.435.322-1.038.187-1.47.61.03.546.372.988.636 1.474.487.895.989 1.185.392 2.846.453-.275.876-.868.883-1.372.01-.813-1.09-1.885-1.177-2.694.315-.248.758-.09 1.078.052.098.96 1.164 1.662 1.079 2.744-.025.31-.73 1.607-1.176 1.829-.265.13-.907.134-1.233.245-.944.322-2.492 1.1-3.096 1.127-1.08.047-1.233-.846-1.838-1.55-.068-.083-.45.017-.71 0-.262-.018-.352-.458-.589-.881-.236-.424-.432-.703-.31-.873.123-.17 1.16-.347 1.797-.202.823.187.874 1.772 1.764 1.982.73.172 1.917-.421 2.01-1.016.07-.451-.281-1.03-.54-1.322-.575-.65-1.833-1.084-2.254-1.83-.205-.363-.054-.613-.392-.965-.451.23.07.805-.049 1.321-.969.525-2.439-.284-3.823-.203-.986.058-2.166.617-2.695-.152-.24-.35-.275-1.156-.245-1.728.024-.446.247-.927 0-1.22-.529.704-.316 1.847-.588 2.744-.457 1.51-1.877 2.408-3.626 2.541-1.734.133-3.486.294-4.117 1.982.286-.08.477-.333.686-.508.698-.582 1.563-.994 2.794-1.067 1.873-.11 3.136-.191 4.067-1.372.23-.29.313-.631.637-.966.727.183.232.875.05 1.22-.216.405-.377.98-.687 1.22-.156.12-.531.18-.833.356-.42.245-.668.58-1.225.66-1.02.146-1.987-.491-2.94-.05-.617.284-1.218 1.234-2.058 1.32-.389.04-.737-.21-1.03-.152-.626.124-.631 1.196-1.323 1.474-.597.24-1.138-.068-1.764-.153.067-.625.334-1.221.588-1.652.716.01.745-.544 1.184-.974.422-.414 1.053-.532 1.364-1.083.304-.539.204-1.254.784-1.627.9.072 2.38-.398 2.45-1.067.056-.518-.508-1.17-.588-1.931-.06-.587.103-1.095-.114-1.662-3.218 1.373-5.93-1.592-4.639-4.234.227-.465.797-1.033 1.274-1.474.33-.305 1.378-.908 1.323-1.372-.055-.469-.648-.276-1.274-.356-1.327-.169-2.509-1.767-1.764-3.202.4.103.76.6 1.372.864 1.351.582 3.253.214 3.235 2.186-.016 1.626-2.236 2.404-2.94 3.557-.915 1.498.19 3.402 2.008 3.1 2.144-.355 3.34-2.487 5.44-2.998.83-.202 1.531-.115 2.303-.457 1.141-.506 1.847-1.936 3.382-2.084.402-.039.697.012.93-.051.514-.139.935-.748 1.373-1.118.851-.719 2.375-.99 3.43-1.525 1.084-.55 2.123-1.654 3.823-1.067 1.357.468 2.23 1.576 3.185 2.389a20.13 20.13 0 0 1 2.744 2.846c.96 1.2 1.593 2.1 1.813 3.811.095.737.276 1.522.49 2.338.183.693.313 1.555.638 2.186.13.252.537.488.735.762.403.557.656 1.32 1.078 1.728.351.34 1.07.516 1.004.744-.065.229-.749.17-1.119.026-.906-.356-1.363-1.364-1.715-1.906-.35-.542-.939-.839-.98-.754-.04.085.441.644.653 1.077.209.424.309.983.589 1.372.236.328.521.486.833.661.335.188.841.405.776.566-.066.161-.441.356-1.634-.06-1.192-.414-1.29-1.278-1.813-1.236-.302.025-.8.839-1.372.869-.446.023-1.04-.057-1.568-.022-.393.026-.71.178-1.552.5-.841.322-1.446.034-1.462-.212-.017-.245-.172-.652-.131-.88.092-.513.474-.78.425-.948-.07-.267-.383.157-.54-.051-.118-.787.604-1.134.981-1.576.059-.582.65-1.31.594-1.38-.055-.07-1.055.025-1.574.212-.997.357-1.585.312-1.593.05M11.38 24.207c-.155.33-.118.669-.135.999-.016.33-.339.377-.314.534.024.156.747.424.94.427.191.005.166-.143.232-.516.065-.373.347-.974.339-1.135-.013-.246-.36-.722-.617-.712-.11.005-.29.072-.445.403m1.164-1.182c.163-.186.539-.364.764-.568.224-.203.326-.3.502-.186.175.114.4.267.31.5-.09.233-.645 1.042-.976 1.093-.33.05-.6-.136-.657-.344-.057-.207-.013-.416.057-.495"/>
        <path fill="#FFF" d="M63.936 19.777c-.098.172-.2.35-.284.485a6.45 6.45 0 0 0-.387.725 4.957 4.957 0 0 0-.343-.57c-.144-.217-.28-.422-.34-.618l-.003-.013-.005-.013a2.086 2.086 0 0 0-.198-.4c.106.033.216.06.33.077l.013.002.012.001c.386.04.825.083 1.26.083h.083c-.043.074-.09.155-.138.241m25.936 4.925a1.69 1.69 0 0 1-.017-.243 2.682 2.682 0 0 0-.033-.413c-.091-.496-.609-.984-1.046-.984h-.02a.69.69 0 0 0-.056-.277c-.078-.176-.3-.426-.657-.741-.575-.508-.774-.532-.87-.544a.7.7 0 0 0-.086-.005c-.32 0-.62.2-.779.37a.855.855 0 0 0-.218.398 1.774 1.774 0 0 1-.282-.24c-.056-.096-.133-.425-.185-.643-.13-.55-.242-1.024-.541-1.264-.26-.208-.595-.227-.919-.246-.43-.024-.704-.056-.858-.282-.051-.075-.05-.122.082-.405.024-.053.05-.107.073-.165.125-.295.313-.948.18-1.999a1.745 1.745 0 0 0-.073-.319c.287.077.595.117.917.117.556 0 1.137-.12 1.638-.338l.01-.004.01-.005c1.161-.569 1.883-1.718 1.839-2.927v-.014l-.002-.014c-.125-1.314-.899-2.582-2.301-3.768l-.064-.055a6.597 6.597 0 0 1-.083-.072c.398-.052.974-.198 1.447-.528.89-.619 1.297-1.708 1.091-2.912l-.005-.036-.012-.035-.005-.016c-.137-.469-.448-.54-.621-.54a.658.658 0 0 0-.17.024c-.202.054-.352.192-.486.313-.053.05-.12.11-.156.131l-.005.003c-.205.121-.482.18-.776.24-.306.065-.623.131-.928.279-.932.406-1.818.903-2.006 1.778a2.17 2.17 0 0 0 .217 1.48l.008.014.008.014c.35.557.832 1.015 1.298 1.458.67.637 1.304 1.24 1.446 2.04.023.135.084.535-.533.997-.221.13-.483.197-.78.197-.38 0-.798-.112-1.174-.315l-.012-.006c-.544-.274-1.06-.62-1.604-.988-.818-.55-1.664-1.12-2.634-1.438-.437-.194-.894-.287-1.336-.377-.581-.12-1.131-.232-1.547-.56l-.017-.014-.017-.011a12.375 12.375 0 0 1-.492-.347c-.486-.354-.987-.72-1.6-.882-.239-.08-.475-.12-.704-.16-.255-.043-.497-.084-.69-.177-.411-.366-.956-.815-1.588-1.133-.797-.402-1.666-.613-2.561-.81-.134-.034-.244-.162-.412-.367-.136-.168-.291-.358-.505-.508-.844-.67-1.63-.982-2.474-.982-.092 0-.185.004-.277.011-.555.04-.94.377-1.281.675l-.004.003c-.794.7-1.655 1.329-2.488 1.936-1.27.926-2.582 1.883-3.72 3.134-1.302 1.357-1.72 3.02-2.125 4.63l-.023.09c-.2.794-.808 3.21-1.19 3.911-.302.553-.753 1.326-1.19 1.664-.125.097-.24.179-.34.25-.323.228-.602.426-.644.802a.58.58 0 0 0 .146.454c.154.173.396.257.742.257.137 0 .282-.013.428-.038a.758.758 0 0 0-.06.354c.01.137.1.584.846.584.47 0 1.225-.188 1.811-.72a46.2 46.2 0 0 0 .34-.312c.215-.2.453-.42.59-.517.073.053.152.126.235.203.214.198.48.445.86.524l.082.017.083-.012c.393-.054.748-.1 1.099-.1.077 0 .152.003.224.007.373.116.737.255 1.123.4.286.109.581.221.881.323l.083.029.089-.003c.657-.023 1.048-.643 1.196-.877l.021-.034.016-.037c.115-.273.099-.532.064-.745a.816.816 0 0 0 .138-.027l.072-.02.063-.043a.708.708 0 0 0 .047-.034c.04.148.09.308.143.472l.042.132c.019.059.04.138.063.223.134.496.285 1.057.735 1.193.095.03.198.043.316.043.115 0 .225-.013.322-.025.053-.006.107-.012.144-.014a.414.414 0 0 1 .162.142c.078.096.186.227.382.335.216.119.62.228 1.169.37.181.047.352.092.451.123.068.02.15.05.244.08.523.177.984.323 1.334.323.667 0 1.464-.4 1.722-1.52.38-.036.704-.238.896-.56.043-.073.095-.147.153-.233.098-.142.208-.302.331-.522.148-.264.19-.496.13-.71a.734.734 0 0 0-.37-.442c-.087-.049-.205-.115-1.026-.115-.16 0-.56.004-.822.04a1.189 1.189 0 0 0-.328.09.662.662 0 0 0-.627-.416.754.754 0 0 0-.165.018 1.39 1.39 0 0 1-.184.018c.252-.12.528-.289.765-.511l.273.048a3.8 3.8 0 0 0 .657.054c.557 0 1.12-.103 1.664-.202.54-.1 1.05-.192 1.545-.192.102 0 .201.004.295.012.153.013.304.03.45.046.316.035.643.07.985.07.108 0 .211-.003.314-.01.342-.016.655-.096.926-.23.011.148.039.314.077.501l.017.08c.132.644.296 1.446.886 1.929.608.499 1.466 1.093 2.097 1.093.024 0 .047 0 .07-.002.147-.01.306-.03.475-.052.273-.036.583-.077.9-.077.187 0 .357.014.519.042.696.12 1.127.454 1.543.776.43.333.873.677 1.513.677.509 0 .734-.126.906-.261.054.061.123.155.175.223.276.369.691.926 1.41.986.215.019.41.028.582.028.309 0 .633-.024.856-.16a.54.54 0 0 0 .276.194.682.682 0 0 0 .212.031c.245 0 .564-.11.731-.176.44-.172.622-.326.676-.567.057-.261-.042-.58-.273-.878"/>
        <path fill="#AAA" d="M87.12 24.102c-.43-.06-.981-1.014-.994-1.204-.013-.213.358-.464.558-.44.2.025 1.047.783 1.144 1.003.097.22-.278.703-.708.641M68.425 22.29a5.515 5.515 0 0 1-.322 1.161c-.127.254-.477.169-.716.141-.253-.1-.645-.127-.688-.481-.041-.34.113-.652.28-.906.38-.057.815.028 1.194-.042.111-.029.224.014.252.127m20.82 3.67c-.024.11-.811.416-.999.355-.15-.049-.103-.617-.273-1.051-.17-.434-.284-.703-.09-.923.193-.22.272-.3.454-.312.182-.012.527.288.581.587.055.3-.018.666.133.856.152.19.218.378.194.489M64.8 9.99l-.057.113-.061.1-.417.39-.446.421c-.335.329-.57.606-.74.873-.142.196-.248.425-.352.646-.032.066-.112.068-.155.054l-.024-.008-.008-.025a.855.855 0 0 1-.043-.272c0-.074.009-.154.024-.24l.084-.333.04-.15c.254-.68.82-1.39 1.554-1.946a.535.535 0 0 1 .403-.06c.08.025.139.078.172.158.032.055.048.11.048.164a.323.323 0 0 1-.022.115l.032.012-.032-.011m-5.403 7.552c-.03.281-.224.354-.412.183-.187-.17-.157-.446-.478-.452-.321-.006-.303.208-.618.422s-.616.455-.707.706c-.09.25-.068.767-.347.803-.27.036-.357-.947.134-1.522.49-.574.86-.77 1.09-1.21.23-.44.411-.452.593-.318.182.135.775 1.107.745 1.388m-.303 4.59c-.109.153-.544.092-.739 0-.31-.147-.32-.733-.223-.862.096-.128.52-.018.732.19.212.208.34.52.23.672m27.53 2.337c-.363-.252-.6-.784-.888-1.06-.21-.2-.468-.309-.727-.594-.258-.285-.347-1.598-.662-1.85-.363-.292-1.389.081-1.877-.636-.261-.383-.025-.721.109-1.039.133-.318.254-.892.146-1.753-.038-.291-.213-.533-.16-.827.133-.253.45-.066.648-.04.74.214 1.612.107 2.285-.186.925-.454 1.61-1.398 1.57-2.479-.133-1.4-1.067-2.549-2.137-3.455-.199-.174-.443-.363-.516-.614-.086-.297.108-.365.32-.352.211.012.969-.067 1.538-.465.799-.557 1.05-1.504.89-2.437-.026-.08-.055-.259-.212-.216-.158.043-.342.29-.527.398-.515.306-1.208.277-1.75.544-.674.293-1.586.734-1.738 1.442-.089.415-.002.829.17 1.15.819 1.305 2.538 2.113 2.816 3.687.105.64-.254 1.131-.743 1.492-.74.453-1.715.304-2.454-.095-1.428-.72-2.67-1.921-4.202-2.414-.965-.44-2.154-.334-3.013-1.014-.647-.427-1.242-.986-1.968-1.173-.503-.174-1.07-.147-1.533-.4-.476-.428-.977-.827-1.532-1.107-.767-.387-1.612-.587-2.458-.774-.502-.12-.687-.68-1.096-.96-.701-.56-1.48-.96-2.432-.88-.396.026-.7.293-1.004.56-2.021 1.787-4.333 3.014-6.183 5.054-1.242 1.294-1.632 2.917-2.035 4.521-.268 1.07-.838 3.306-1.237 4.04-.4.733-.848 1.455-1.32 1.821-.473.367-.776.502-.8.722-.024.22.654.232 1.211.012s.69-.709 1.042-1.125c.35-.415.944-1.283 1.114-1.198.17.086-.106.479-.388.82-.484.586-.308.722-.605 1.124-.46.623-1.138.974-1.114 1.308.017.233 1.114.208 1.853-.464.739-.673 1.107-1.076 1.34-.978.401.167.661.666 1.11.76.476-.066.978-.133 1.48-.094.7.214 1.375.508 2.075.747.356-.012.62-.36.805-.653.146-.347-.065-.693-.039-1.027.172-.106.37.027.555-.027.079-.053.145-.146.145-.239-.132-.614-.674-1.068-.845-1.641-.265-.735-1.123-1.174-1.282-1.961.04-.053.106-.134.172-.08.568.413 1.07.96 1.77 1.066.53.054 1.07.107 1.599.068.08-.028.145-.121.12-.213-.225-.48-.446-.96-.57-1.481-.236-.987-.292-2.414.023-2.438.315-.024.137 1.019.395 1.866.259.848.376 1.152.653 1.478.308.364.962.674 1.124.951.161.277.072.693-.194 1.043-.267.35-.597.847-.824 1.19-.064.098-.185.301-.185.432 0 .13.032.92-.057.905-.089-.017-.436-.978-.29-1.402.145-.424 1.219-1.704 1.105-1.842-.112-.139-.637-.31-.774-.302-.138.008-.55.84-.84 1.304-.29.465-.541 1.038-.525 1.236.016.199.137.557.242.891.105.335.234 1.027.477 1.1.242.074.62-.064.783 0 .387.155.371.375.637.522.267.147 1.195.35 1.535.457.339.106 1.058.382 1.437.382.38 0 1.054-.203 1.262-1.19.064-.305.151-.317.381-.33a.67.67 0 0 0 .563-.33c.127-.213.291-.409.479-.745.187-.336.054-.428-.055-.489s-1.144-.073-1.55-.018c-.62.084-.656.819-.92 1.246-.146.267-.345.308-.648.282-.635-.174-1.375-.187-1.666-.88-.04-.174-.07-.37.049-.504.514-.586.878-1.124 1.193-1.206.315-.081 1.179-.44 1.429-1.117.25-.676.315-.668.46-.66.145.009.113.677-.145 1.117 1.3.228 2.752-.453 4.126-.334.592.051 1.102.146 1.683.105.582-.026 1.16-.287 1.4-.88.324-.794-.148-2.506.021-2.615.17-.11.533 1.405.654 2.457.08.683.412 1.456.848 1.98.513.615 1.434 1.235 2.612 1.088 1.18-.147 2.075-.049 3.004.66.929.71.831.913.759.946-.073.032-1.004-.88-1.89-1.166-1.162-.375-2.333.22-3.488-.211-1.154-.433-1.25-.852-1.679-1.46-.382-.542-.428-.92-.622-.937-.194-.016-.242.171-.113.799.13.627.259 1.345.735 1.736.476.39 1.34 1.019 1.833.986.492-.032 1.231-.216 2.01-.082 1.559.27 1.978 1.451 2.98 1.451.735 0 .54-.301.96-.293.42.008.711 1.174 1.575 1.247.864.073 1.155-.025 1.187-.106.032-.082-.121-1.109-.412-1.492 0 0-.21.09-.573-.163"/>
    </g>
</svg>
