<svg xmlns="http://www.w3.org/2000/svg" width="153" height="26" viewBox="0 0 153 26">
    <path fill="#AAA" fill-rule="evenodd" d="M149.748 21.188c-.12.123-.12.093-.209.031l-2.394-2.19c-.24-.217-.359-.4-.359-.802v-8.45c0-.093 0-.185-.12-.278l-.809-.738c-.09-.062-.21-.093-.328-.032l-1.527.74v7.957c0 .123-.03.247.091.338l.689.617c.178.155.477.34.747.248l.238-.093c.3-.122.36.061.182.216l-2.753 2.436c-.121.123-.15.093-.242.031l-2.422-2.222c-.299-.276-.299-.308-.299-.708V4.596c0-.154 0-.184-.15-.308l-.3-.276c-.299-.279-.418-.218-.808-.032l-.598.278c-.09.03-.18-.093-.03-.246l3.171-2.746c.12-.123.12-.091.21-.031l1.915 1.82c.24.247.359.4.359.802v5.149l3.98-2.59c.12-.062.24-.062.33.031l1.944 1.85c.27.247.33.432.33.74v8.45c0 .154 0 .186.15.309l.747.647c.301.278.42.216.808.032l.6-.278c.09-.032.178.092.03.246l-3.173 2.745zm-16.015-11.59a.697.697 0 0 0-.15-.455l-.697-.82c-.05-.06-.1-.06-.174-.03l-1.245.577v9.626l.697.274c.573.212.822.182 1.07-.092l.25-.272c.224-.243.25-.517.25-1.002V9.599zm3.206 9.112l-2.53 2.194c-.278.25-.333.188-.667-.032l-2.641-1.818v3.667l.751.721c.083.063.083.126 0 .22l-2.196 2.288c-.056.032-.112.095-.223 0l-2.447-2.225c-.082-.063-.055-.127 0-.22l.612-.784V9.244l-.612-.846c-.027-.031-.055-.031-.112 0l-.832.469c-.196.127-.335-.032-.167-.187l2.835-2.697c.083-.093.195-.093.25-.03l2.057 2.287 3.725-2.257c.111-.062.194-.03.222 0l1.862 1.944c.14.157.307.408.307.69v9.59c0 .22 0 .346-.194.503zM121.267 9.86c0-.186-.032-.279-.189-.433l-1.135-1.118c-.061-.06-.061-.03-.158 0l-.785.341v8.962c0 .31.062.464.282.65l.41.372c.283.248.63.372 1.04.187l.535-.249V9.86zm2.696 11.324c-.113.127-.142.096-.226.033l-2.562-2.54-3.04 2.54c-.114.094-.142.063-.254-.033l-1.944-1.968c-.31-.286-.337-.348-.337-.73V9.22c0-.16.111-.19.167-.223l6.534-3.046c.113-.064.225-.064.338.063l1.746 1.968c.252.285.338.444.338.634v8.95l.506.506c.62.605.705.572.987.413l.393-.221c.254-.158.451-.033.225.19l-2.871 2.73zm-10.944-11.162c-.152.126-.3.19-.45.19-.15 0-.298-.064-.45-.19l-1.827-1.65-.18.158v8.818c0 .19 0 .223.12.317l.479.446c.51.474.63.505 1.169.286l.359-.16c.24-.095.3.031.15.19l-3.087 2.76c-.118.126-.149.095-.238.032l-2.367-2.253c-.27-.254-.36-.35-.36-.698V9.228l-.717-.793c-.062-.063-.09-.063-.181 0l-.9.54c-.27.157-.359-.065-.178-.223l3.085-2.76c.12-.094.18-.094.24-.031l2.096 2.188 2.067-2.157c.12-.094.21-.126.33 0l1.588 1.555c.3.285.479.444.66.444.12 0 .269-.065.448-.191l.419-.285c.271-.19.39.096.24.254l-2.515 2.252zm-12.152-.224c0-.125-.031-.217-.157-.341l-1.167-1.148c-.063-.06-.093-.03-.188 0l-.755.341v8.896c0 .495.126.559.63 1.023.283.249.44.341.724.341.252 0 .661-.186.913-.341v-8.77zm2.848 13.353l-3.042 2.787c-.082.094-.137.063-.193.032-1.604-1.223-2.875-1.786-4.257-1.786-.968 0-1.935.219-3.18.595-.11.03-.137-.063-.082-.156 1.3-2.224 2.903-2.914 4.396-2.914 2.21 0 4.285 1.535 5.114 2.162l.082-.064a4.301 4.301 0 0 0 .304-1.597c0-1.598-1.161-2.881-2.599-3.695l-2.985 2.506c-.11.093-.193.062-.276-.032l-1.88-1.943c-.276-.282-.332-.406-.332-.72V9.179c0-.157.111-.188.166-.22l6.358-2.976c.166-.093.277-.093.333-.03l1.769 2.005c.22.251.331.438.331.656v8.333c1.16.97 1.658 1.942 1.658 2.914 0 1.096-.47 2.159-1.685 3.289zM88.462 8.273l-.062.03v5.879l2.166-1.757c.122-.092.122-.151.06-.241l-2.164-3.911zm5.507 2.418l-5.222 3.517v2.693c0 .255.029.32.237.445l1.682.95c.294.16.795.317 1.091.128l1.563-.982c.267-.16.473-.064.324.063l-4.277 3.708c-.09.094-.059.063-.176 0l-3.808-2.155c-.294-.16-.383-.223-.383-.665V8.378c0-.16.06-.223.237-.286l6.224-2.155c.09-.031.178-.062.237.063l2.331 4.437c.058.096.058.19-.06.254zm-11.88 10.497c-.121.123-.152.093-.243.031l-2.47-2.222c-.306-.276-.306-.308-.306-.708V4.596c0-.154 0-.184-.152-.308l-.306-.276c-.306-.279-.427-.218-.823-.032l-.611.278c-.09.03-.183-.093-.03-.246l3.234-2.746c.122-.123.122-.091.214-.031l1.95 1.82c.246.247.368.4.368.802v13.57c0 .122-.031.246.09.337l.703.617c.183.155.488.34.762.248l.245-.093c.305-.122.366.061.182.216l-2.806 2.436zM72.596 8.273l-.062.03v5.879l2.164-1.757c.125-.092.125-.151.061-.241l-2.163-3.911zm5.507 2.418l-5.222 3.517v2.693c0 .255.029.32.234.445l1.683.95c.295.16.797.317 1.092.128l1.563-.982c.266-.16.473-.064.325.063l-4.28 3.708c-.086.094-.057.063-.175 0l-3.805-2.155c-.296-.16-.384-.223-.384-.665V8.378c0-.16.06-.223.236-.286l6.225-2.155c.088-.031.177-.062.236.063l2.33 4.437c.06.096.06.19-.058.254zM63.009 4.725c-.518 0-.95-.061-1.44-.122v8.991c0 .213-.026.275-.142.366l-4.832 3.26c.72.366 1.583.61 2.473.61 3.049 0 6.5-1.768 8.11-6.187.086-.244.287-.304.287.122v.305c0 4.846-3.478 9.203-8.628 9.203-5.608 0-8.97-4.48-8.97-9.142 0-3.505 1.812-6.766 5.924-8.138.17-.062.201.032.085.124-1.811 1.492-2.79 3.93-2.79 6.368 0 2.59.979 5.15 3.165 6.522l1.207-.915c.431-.305.489-.64.489-1.128V3.81c-1.324-.517-2.502-.821-3.595-.821-1.495 0-2.847.7-4.17 2.408-.143.183-.23.183-.23 0C50.126 1.951 53.03 0 55.904 0c3.308 0 6.357 1.707 9.693 1.707 1.179 0 2.385-.273 3.392-.853.145-.06.175.061.116.183-1.036 2.743-3.567 3.688-6.096 3.688zm-26.68 3.548l-.062.03v5.879l2.164-1.757c.124-.092.124-.151.062-.241l-2.165-3.911zm4.374 2.418l-5.224 3.517v2.693c0 .255.03.32.237.445l1.682.95c.294.16.797.317 1.091.128l1.564-.982c.266-.16.473-.064.325.063l-4.277 3.708c-.09.094-.06.063-.178 0l-3.806-2.155c-.295-.16-.384-.223-.384-.665V8.378c0-.16.058-.223.236-.286l6.226-2.155c.089-.031.177-.062.237.063l2.328 4.437c.06.096.06.19-.057.254zM28.48 21.188c-.12.123-.12.093-.208.031l-2.395-2.19c-.24-.217-.36-.4-.36-.802v-8.45c0-.093 0-.185-.12-.278l-.807-.738c-.09-.062-.208-.093-.329-.032l-1.526.74v7.957c0 .123-.03.247.09.338l.688.617c.18.155.479.34.748.248l.24-.093c.3-.122.36.061.18.216l-2.754 2.436c-.12.123-.15.093-.24.031l-2.424-2.222c-.298-.276-.298-.308-.298-.708V4.596c0-.154 0-.184-.15-.308l-.3-.276c-.298-.279-.419-.218-.806-.032l-.6.278c-.09.03-.18-.093-.03-.246l3.173-2.746c.118-.123.118-.091.209-.031l1.914 1.82c.24.247.36.4.36.802v5.149l3.98-2.59c.119-.062.24-.062.329.031l1.946 1.85c.268.247.328.432.328.74v8.45c0 .154 0 .186.15.309l.748.647c.3.278.42.216.809.032l.598-.278c.09-.032.178.092.03.246l-3.173 2.745zM13.144 4.725c-.52 0-.95-.061-1.44-.122v8.991c0 .213-.029.275-.143.366l-4.832 3.26c.719.366 1.581.61 2.473.61 3.047 0 6.5-1.768 8.11-6.187.086-.244.288-.304.288.122v.305c0 4.846-3.48 9.203-8.628 9.203C3.364 21.273 0 16.793 0 12.13c0-3.505 1.81-6.766 5.923-8.138.174-.062.202.032.087.124-1.813 1.492-2.789 3.93-2.789 6.368 0 2.59.976 5.15 3.163 6.522l1.208-.976c.403-.334.488-.639.488-1.126V3.809c-1.321-.517-2.503-.821-3.593-.821-1.497 0-2.848.7-4.17 2.408-.145.183-.233.183-.233 0C.26 1.951 3.164 0 6.038 0c3.308 0 6.356 1.707 9.693 1.707 1.18 0 2.387-.273 3.393-.853.143-.06.172.061.115.183-1.036 2.743-3.566 3.688-6.095 3.688z"/>
</svg>
